N,D,work_mem,hashagg,sort,HashAggregate,GroupAggregate,workers,memusage,batches,disk
100000,1000,4MB,on,on,1,0,0,,,,50.706
100000,1000,16MB,on,on,1,0,0,,,,51.029
100000,1000,64MB,on,on,1,0,0,,,,50.996
100000,1000,128MB,on,on,1,0,0,,,,50.564
100000,1000,4MB,on,on,1,0,8,,,,51.656
100000,1000,16MB,on,on,1,0,8,,,,50.699
100000,1000,64MB,on,on,1,0,8,,,,50.458
100000,1000,128MB,on,on,1,0,8,,,,50.341
100000,1000,4MB,on,off,1,0,0,,,,51.570
100000,1000,16MB,on,off,1,0,0,,,,50.759
100000,1000,64MB,on,off,1,0,0,,,,51.102
100000,1000,128MB,on,off,1,0,0,,,,50.694
100000,1000,4MB,on,off,1,0,8,,,,51.406
100000,1000,16MB,on,off,1,0,8,,,,50.549
100000,1000,64MB,on,off,1,0,8,,,,50.635
100000,1000,128MB,on,off,1,0,8,,,,50.491
100000,1000,4MB,off,on,0,1,0,,,,76.560
100000,1000,16MB,off,on,0,1,0,,,,60.522
100000,1000,64MB,off,on,0,1,0,,,,62.702
100000,1000,128MB,off,on,0,1,0,,,,61.923
100000,1000,4MB,off,on,0,1,8,,,,26.658
100000,1000,16MB,off,on,0,1,8,,,,27.265
100000,1000,64MB,off,on,0,1,8,,,,27.060
100000,1000,128MB,off,on,0,1,8,,,,27.249
100000,1000,4MB,off,off,0,1,0,,,,77.090
100000,1000,16MB,off,off,0,1,0,,,,60.971
100000,1000,64MB,off,off,0,1,0,,,,60.348
100000,1000,128MB,off,off,0,1,0,,,,60.615
100000,1000,4MB,off,off,0,1,8,,,,76.990
100000,1000,16MB,off,off,0,1,8,,,,61.194
100000,1000,64MB,off,off,0,1,8,,,,61.585
100000,1000,128MB,off,off,0,1,8,,,,62.382
100000,10000,4MB,on,on,1,0,0,,,,56.882
100000,10000,16MB,on,on,1,0,0,,,,56.737
100000,10000,64MB,on,on,1,0,0,,,,57.068
100000,10000,128MB,on,on,1,0,0,,,,57.041
100000,10000,4MB,on,on,1,0,8,,,,56.840
100000,10000,16MB,on,on,1,0,8,,,,57.320
100000,10000,64MB,on,on,1,0,8,,,,57.283
100000,10000,128MB,on,on,1,0,8,,,,58.302
100000,10000,4MB,on,off,1,0,0,,,,57.125
100000,10000,16MB,on,off,1,0,0,,,,57.252
100000,10000,64MB,on,off,1,0,0,,,,58.058
100000,10000,128MB,on,off,1,0,0,,,,56.925
100000,10000,4MB,on,off,1,0,8,,,,56.905
100000,10000,16MB,on,off,1,0,8,,,,58.221
100000,10000,64MB,on,off,1,0,8,,,,57.205
100000,10000,128MB,on,off,1,0,8,,,,58.126
100000,10000,4MB,off,on,0,1,0,,,,89.702
100000,10000,16MB,off,on,0,1,0,,,,71.613
100000,10000,64MB,off,on,0,1,0,,,,71.009
100000,10000,128MB,off,on,0,1,0,,,,72.240
100000,10000,4MB,off,on,0,1,8,,,,61.985
100000,10000,16MB,off,on,0,1,8,,,,61.591
100000,10000,64MB,off,on,0,1,8,,,,61.806
100000,10000,128MB,off,on,0,1,8,,,,61.507
100000,10000,4MB,off,off,0,1,0,,,,89.446
100000,10000,16MB,off,off,0,1,0,,,,71.928
100000,10000,64MB,off,off,0,1,0,,,,71.021
100000,10000,128MB,off,off,0,1,0,,,,71.825
100000,10000,4MB,off,off,0,1,8,,,,89.413
100000,10000,16MB,off,off,0,1,8,,,,71.775
100000,10000,64MB,off,off,0,1,8,,,,71.320
100000,10000,128MB,off,off,0,1,8,,,,71.080
100000,100000,4MB,on,on,1,0,0,,,,81.166
100000,100000,16MB,on,on,1,0,0,,,,81.862
100000,100000,64MB,on,on,1,0,0,,,,81.264
100000,100000,128MB,on,on,1,0,0,,,,81.000
100000,100000,4MB,on,on,1,0,8,,,,80.874
100000,100000,16MB,on,on,1,0,8,,,,83.684
100000,100000,64MB,on,on,1,0,8,,,,81.776
100000,100000,128MB,on,on,1,0,8,,,,82.564
100000,100000,4MB,on,off,1,0,0,,,,81.641
100000,100000,16MB,on,off,1,0,0,,,,81.579
100000,100000,64MB,on,off,1,0,0,,,,81.296
100000,100000,128MB,on,off,1,0,0,,,,81.641
100000,100000,4MB,on,off,1,0,8,,,,81.176
100000,100000,16MB,on,off,1,0,8,,,,81.306
100000,100000,64MB,on,off,1,0,8,,,,81.650
100000,100000,128MB,on,off,1,0,8,,,,81.131
100000,100000,4MB,off,on,0,1,0,,,,118.743
100000,100000,16MB,off,on,0,1,0,,,,101.331
100000,100000,64MB,off,on,0,1,0,,,,101.740
100000,100000,128MB,off,on,0,1,0,,,,100.816
100000,100000,4MB,off,on,0,1,8,,,,119.031
100000,100000,16MB,off,on,0,1,8,,,,100.704
100000,100000,64MB,off,on,0,1,8,,,,100.453
100000,100000,128MB,off,on,0,1,8,,,,100.522
100000,100000,4MB,off,off,0,1,0,,,,119.744
100000,100000,16MB,off,off,0,1,0,,,,100.880
100000,100000,64MB,off,off,0,1,0,,,,101.086
100000,100000,128MB,off,off,0,1,0,,,,100.657
100000,100000,4MB,off,off,0,1,8,,,,119.507
100000,100000,16MB,off,off,0,1,8,,,,100.584
100000,100000,64MB,off,off,0,1,8,,,,100.881
100000,100000,128MB,off,off,0,1,8,,,,100.642
1000000,1000,4MB,on,on,1,0,0,,,,471.858
1000000,1000,16MB,on,on,1,0,0,,,,472.976
1000000,1000,64MB,on,on,1,0,0,,,,471.900
1000000,1000,128MB,on,on,1,0,0,,,,474.443
1000000,1000,4MB,on,on,1,1,8,,,,93.898
1000000,1000,16MB,on,on,1,1,8,,,,91.391
1000000,1000,64MB,on,on,1,1,8,,,,91.708
1000000,1000,128MB,on,on,1,1,8,,,,94.289
1000000,1000,4MB,on,off,1,0,0,,,,473.664
1000000,1000,16MB,on,off,1,0,0,,,,476.095
1000000,1000,64MB,on,off,1,0,0,,,,474.571
1000000,1000,128MB,on,off,1,0,0,,,,474.849
1000000,1000,4MB,on,off,2,0,8,,,,91.096
1000000,1000,16MB,on,off,2,0,8,,,,91.966
1000000,1000,64MB,on,off,2,0,8,,,,91.390
1000000,1000,128MB,on,off,2,0,8,,,,94.357
1000000,1000,4MB,off,on,0,1,0,,,,768.354
1000000,1000,16MB,off,on,0,1,0,,,,774.122
1000000,1000,64MB,off,on,0,1,0,,,,841.892
1000000,1000,128MB,off,on,0,1,0,,,,646.355
1000000,1000,4MB,off,on,0,2,8,,,,155.184
1000000,1000,16MB,off,on,0,2,8,,,,121.338
1000000,1000,64MB,off,on,0,2,8,,,,122.375
1000000,1000,128MB,off,on,0,2,8,,,,123.357
1000000,1000,4MB,off,off,0,1,0,,,,769.556
1000000,1000,16MB,off,off,0,1,0,,,,789.941
1000000,1000,64MB,off,off,0,1,0,,,,827.903
1000000,1000,128MB,off,off,0,1,0,,,,677.296
1000000,1000,4MB,off,off,0,1,8,,,,768.088
1000000,1000,16MB,off,off,0,1,8,,,,771.209
1000000,1000,64MB,off,off,0,1,8,,,,829.036
1000000,1000,128MB,off,off,0,1,8,,,,647.695
1000000,10000,4MB,on,on,1,0,0,,,,513.648
1000000,10000,16MB,on,on,1,0,0,,,,511.406
1000000,10000,64MB,on,on,1,0,0,,,,511.176
1000000,10000,128MB,on,on,1,0,0,,,,511.551
1000000,10000,4MB,on,on,2,0,8,,,,150.092
1000000,10000,16MB,on,on,2,0,8,,,,148.255
1000000,10000,64MB,on,on,2,0,8,,,,151.853
1000000,10000,128MB,on,on,2,0,8,,,,150.801
1000000,10000,4MB,on,off,1,0,0,,,,511.068
1000000,10000,16MB,on,off,1,0,0,,,,510.886
1000000,10000,64MB,on,off,1,0,0,,,,512.105
1000000,10000,128MB,on,off,1,0,0,,,,510.639
1000000,10000,4MB,on,off,2,0,8,,,,150.557
1000000,10000,16MB,on,off,2,0,8,,,,151.332
1000000,10000,64MB,on,off,2,0,8,,,,150.057
1000000,10000,128MB,on,off,2,0,8,,,,149.906
1000000,10000,4MB,off,on,0,1,0,,,,864.189
1000000,10000,16MB,off,on,0,1,0,,,,842.756
1000000,10000,64MB,off,on,0,1,0,,,,889.513
1000000,10000,128MB,off,on,0,1,0,,,,712.133
1000000,10000,4MB,off,on,0,2,8,,,,221.965
1000000,10000,16MB,off,on,0,2,8,,,,190.410
1000000,10000,64MB,off,on,0,2,8,,,,192.045
1000000,10000,128MB,off,on,0,2,8,,,,192.473
1000000,10000,4MB,off,off,0,1,0,,,,864.782
1000000,10000,16MB,off,off,0,1,0,,,,846.818
1000000,10000,64MB,off,off,0,1,0,,,,890.239
1000000,10000,128MB,off,off,0,1,0,,,,711.854
1000000,10000,4MB,off,off,0,1,8,,,,863.933
1000000,10000,16MB,off,off,0,1,8,,,,844.592
1000000,10000,64MB,off,off,0,1,8,,,,892.880
1000000,10000,128MB,off,off,0,1,8,,,,712.684
1000000,100000,4MB,on,on,0,1,0,,,,1012.105
1000000,100000,16MB,on,on,1,0,0,,,,570.940
1000000,100000,64MB,on,on,1,0,0,,,,601.254
1000000,100000,128MB,on,on,1,0,0,,,,570.166
1000000,100000,4MB,on,on,0,2,8,,,,568.669
1000000,100000,16MB,on,on,1,0,8,,,,570.767
1000000,100000,64MB,on,on,1,0,8,,,,572.247
1000000,100000,128MB,on,on,1,0,8,,,,570.901
1000000,100000,4MB,on,off,0,1,0,,,,1009.702
1000000,100000,16MB,on,off,1,0,0,,,,570.929
1000000,100000,64MB,on,off,1,0,0,,,,570.548
1000000,100000,128MB,on,off,1,0,0,,,,570.671
1000000,100000,4MB,on,off,0,1,8,,,,1013.586
1000000,100000,16MB,on,off,1,0,8,,,,571.515
1000000,100000,64MB,on,off,1,0,8,,,,577.671
1000000,100000,128MB,on,off,1,0,8,,,,571.183
1000000,100000,4MB,off,on,0,1,0,,,,1009.884
1000000,100000,16MB,off,on,0,1,0,,,,982.195
1000000,100000,64MB,off,on,0,1,0,,,,1006.288
1000000,100000,128MB,off,on,0,1,0,,,,822.855
1000000,100000,4MB,off,on,0,2,8,,,,627.637
1000000,100000,16MB,off,on,0,2,8,,,,593.415
1000000,100000,64MB,off,on,0,2,8,,,,585.462
1000000,100000,128MB,off,on,0,2,8,,,,589.181
1000000,100000,4MB,off,off,0,1,0,,,,1009.937
1000000,100000,16MB,off,off,0,1,0,,,,981.277
1000000,100000,64MB,off,off,0,1,0,,,,1009.020
1000000,100000,128MB,off,off,0,1,0,,,,826.264
1000000,100000,4MB,off,off,0,1,8,,,,1010.461
1000000,100000,16MB,off,off,0,1,8,,,,981.243
1000000,100000,64MB,off,off,0,1,8,,,,1009.678
1000000,100000,128MB,off,off,0,1,8,,,,829.599
1000000,1000000,4MB,on,on,0,1,0,,,,1312.066
1000000,1000000,16MB,on,on,0,1,0,,,,1279.536
1000000,1000000,64MB,on,on,1,0,0,,,,895.531
1000000,1000000,128MB,on,on,1,0,0,,,,894.886
1000000,1000000,4MB,on,on,0,1,8,,,,1289.357
1000000,1000000,16MB,on,on,0,1,8,,,,1276.101
1000000,1000000,64MB,on,on,1,0,8,,,,893.560
1000000,1000000,128MB,on,on,1,0,8,,,,897.701
1000000,1000000,4MB,on,off,0,1,0,,,,1290.445
1000000,1000000,16MB,on,off,0,1,0,,,,1278.042
1000000,1000000,64MB,on,off,1,0,0,,,,892.451
1000000,1000000,128MB,on,off,1,0,0,,,,894.922
1000000,1000000,4MB,on,off,0,1,8,,,,1289.462
1000000,1000000,16MB,on,off,0,1,8,,,,1280.383
1000000,1000000,64MB,on,off,1,0,8,,,,893.320
1000000,1000000,128MB,on,off,1,0,8,,,,891.896
1000000,1000000,4MB,off,on,0,1,0,,,,1290.876
1000000,1000000,16MB,off,on,0,1,0,,,,1279.825
1000000,1000000,64MB,off,on,0,1,0,,,,1308.043
1000000,1000000,128MB,off,on,0,1,0,,,,1121.948
1000000,1000000,4MB,off,on,0,1,8,,,,1289.111
1000000,1000000,16MB,off,on,0,1,8,,,,1274.337
1000000,1000000,64MB,off,on,0,1,8,,,,1310.123
1000000,1000000,128MB,off,on,0,1,8,,,,1123.936
1000000,1000000,4MB,off,off,0,1,0,,,,1289.782
1000000,1000000,16MB,off,off,0,1,0,,,,1274.449
1000000,1000000,64MB,off,off,0,1,0,,,,1308.306
1000000,1000000,128MB,off,off,0,1,0,,,,1119.244
1000000,1000000,4MB,off,off,0,1,8,,,,1289.381
1000000,1000000,16MB,off,off,0,1,8,,,,1273.726
1000000,1000000,64MB,off,off,0,1,8,,,,1308.487
1000000,1000000,128MB,off,off,0,1,8,,,,1122.482
10000000,1000,4MB,on,on,1,0,0,,,,4691.454
10000000,1000,16MB,on,on,1,0,0,,,,4700.255
10000000,1000,64MB,on,on,1,0,0,,,,4707.501
10000000,1000,128MB,on,on,1,0,0,,,,4685.649
10000000,1000,4MB,on,on,1,1,8,,,,715.667
10000000,1000,16MB,on,on,1,1,8,,,,717.301
10000000,1000,64MB,on,on,1,1,8,,,,708.086
10000000,1000,128MB,on,on,1,1,8,,,,711.968
10000000,1000,4MB,on,off,1,0,0,,,,4690.231
10000000,1000,16MB,on,off,1,0,0,,,,4689.888
10000000,1000,64MB,on,off,1,0,0,,,,4696.126
10000000,1000,128MB,on,off,1,0,0,,,,4686.578
10000000,1000,4MB,on,off,2,0,8,,,,710.443
10000000,1000,16MB,on,off,2,0,8,,,,711.561
10000000,1000,64MB,on,off,2,0,8,,,,714.494
10000000,1000,128MB,on,off,2,0,8,,,,709.348
10000000,1000,4MB,off,on,0,1,0,,,,9826.761
10000000,1000,16MB,off,on,0,1,0,,,,7690.365
10000000,1000,64MB,off,on,0,1,0,,,,8195.997
10000000,1000,128MB,off,on,0,1,0,,,,8357.691
10000000,1000,4MB,off,on,0,2,8,,,,1243.422
10000000,1000,16MB,off,on,0,2,8,,,,1237.563
10000000,1000,64MB,off,on,0,2,8,,,,1338.963
10000000,1000,128MB,off,on,0,2,8,,,,1031.883
10000000,1000,4MB,off,off,0,1,0,,,,9832.011
10000000,1000,16MB,off,off,0,1,0,,,,7634.924
10000000,1000,64MB,off,off,0,1,0,,,,8205.279
10000000,1000,128MB,off,off,0,1,0,,,,8375.962
10000000,1000,4MB,off,off,0,1,8,,,,9834.091
10000000,1000,16MB,off,off,0,1,8,,,,7648.883
10000000,1000,64MB,off,off,0,1,8,,,,8201.111
10000000,1000,128MB,off,off,0,1,8,,,,8365.760
10000000,10000,4MB,on,on,1,0,0,,,,5043.438
10000000,10000,16MB,on,on,1,0,0,,,,5049.443
10000000,10000,64MB,on,on,1,0,0,,,,5050.733
10000000,10000,128MB,on,on,1,0,0,,,,5048.708
10000000,10000,4MB,on,on,2,0,8,,,,813.467
10000000,10000,16MB,on,on,2,0,8,,,,819.133
10000000,10000,64MB,on,on,2,0,8,,,,816.480
10000000,10000,128MB,on,on,2,0,8,,,,813.718
10000000,10000,4MB,on,off,1,0,0,,,,5044.123
10000000,10000,16MB,on,off,1,0,0,,,,5046.432
10000000,10000,64MB,on,off,1,0,0,,,,5046.106
10000000,10000,128MB,on,off,1,0,0,,,,5048.299
10000000,10000,4MB,on,off,2,0,8,,,,813.297
10000000,10000,16MB,on,off,2,0,8,,,,811.003
10000000,10000,64MB,on,off,2,0,8,,,,814.004
10000000,10000,128MB,on,off,2,0,8,,,,813.887
10000000,10000,4MB,off,on,0,1,0,,,,10774.812
10000000,10000,16MB,off,on,0,1,0,,,,8563.254
10000000,10000,64MB,off,on,0,1,0,,,,8826.890
10000000,10000,128MB,off,on,0,1,0,,,,8946.604
10000000,10000,4MB,off,on,0,2,8,,,,1398.919
10000000,10000,16MB,off,on,0,2,8,,,,1390.093
10000000,10000,64MB,off,on,0,2,8,,,,1444.540
10000000,10000,128MB,off,on,0,2,8,,,,1129.088
10000000,10000,4MB,off,off,0,1,0,,,,10781.408
10000000,10000,16MB,off,off,0,1,0,,,,8413.046
10000000,10000,64MB,off,off,0,1,0,,,,8826.515
10000000,10000,128MB,off,off,0,1,0,,,,8982.699
10000000,10000,4MB,off,off,0,1,8,,,,10769.887
10000000,10000,16MB,off,off,0,1,8,,,,8408.191
10000000,10000,64MB,off,off,0,1,8,,,,8821.177
10000000,10000,128MB,off,off,0,1,8,,,,8951.395
10000000,100000,4MB,on,on,0,1,0,,,,11945.372
10000000,100000,16MB,on,on,1,0,0,,,,5445.125
10000000,100000,64MB,on,on,1,0,0,,,,5442.122
10000000,100000,128MB,on,on,1,0,0,,,,5435.850
10000000,100000,4MB,on,on,0,2,8,,,,2157.396
10000000,100000,16MB,on,on,2,0,8,,,,1602.057
10000000,100000,64MB,on,on,2,0,8,,,,1616.207
10000000,100000,128MB,on,on,2,0,8,,,,1620.615
10000000,100000,4MB,on,off,0,1,0,,,,11927.360
10000000,100000,16MB,on,off,1,0,0,,,,5424.496
10000000,100000,64MB,on,off,1,0,0,,,,5435.287
10000000,100000,128MB,on,off,1,0,0,,,,5434.465
10000000,100000,4MB,on,off,0,1,8,,,,11924.471
10000000,100000,16MB,on,off,2,0,8,,,,1601.328
10000000,100000,64MB,on,off,2,0,8,,,,1609.351
10000000,100000,128MB,on,off,2,0,8,,,,1617.978
10000000,100000,4MB,off,on,0,1,0,,,,11966.337
10000000,100000,16MB,off,on,0,1,0,,,,9781.667
10000000,100000,64MB,off,on,0,1,0,,,,9680.445
10000000,100000,128MB,off,on,0,1,0,,,,9717.775
10000000,100000,4MB,off,on,0,2,8,,,,2148.593
10000000,100000,16MB,off,on,0,2,8,,,,2141.140
10000000,100000,64MB,off,on,0,2,8,,,,2038.374
10000000,100000,128MB,off,on,0,2,8,,,,1830.848
10000000,100000,4MB,off,off,0,1,0,,,,11930.274
10000000,100000,16MB,off,off,0,1,0,,,,9784.950
10000000,100000,64MB,off,off,0,1,0,,,,9690.503
10000000,100000,128MB,off,off,0,1,0,,,,9721.986
10000000,100000,4MB,off,off,0,1,8,,,,11931.144
10000000,100000,16MB,off,off,0,1,8,,,,9766.836
10000000,100000,64MB,off,off,0,1,8,,,,9687.931
10000000,100000,128MB,off,off,0,1,8,,,,9762.173
10000000,1000000,4MB,on,on,0,1,0,,,,13073.700
10000000,1000000,16MB,on,on,0,1,0,,,,11183.645
10000000,1000000,64MB,on,on,1,0,0,,,,7303.460
10000000,1000000,128MB,on,on,1,0,0,,,,7297.918
10000000,1000000,4MB,on,on,0,2,8,,,,6086.953
10000000,1000000,16MB,on,on,0,2,8,,,,6078.651
10000000,1000000,64MB,on,on,1,0,8,,,,7298.540
10000000,1000000,128MB,on,on,1,0,8,,,,7315.079
10000000,1000000,4MB,on,off,0,1,0,,,,13071.954
10000000,1000000,16MB,on,off,0,1,0,,,,11203.351
10000000,1000000,64MB,on,off,1,0,0,,,,7317.118
10000000,1000000,128MB,on,off,1,0,0,,,,7310.702
10000000,1000000,4MB,on,off,0,1,8,,,,13063.884
10000000,1000000,16MB,on,off,0,1,8,,,,11196.061
10000000,1000000,64MB,on,off,1,0,8,,,,7336.868
10000000,1000000,128MB,on,off,1,0,8,,,,7336.122
10000000,1000000,4MB,off,on,0,1,0,,,,13064.113
10000000,1000000,16MB,off,on,0,1,0,,,,11216.541
10000000,1000000,64MB,off,on,0,1,0,,,,11182.320
10000000,1000000,128MB,off,on,0,1,0,,,,11117.078
10000000,1000000,4MB,off,on,0,2,8,,,,6129.635
10000000,1000000,16MB,off,on,0,2,8,,,,6025.648
10000000,1000000,64MB,off,on,0,2,8,,,,5975.029
10000000,1000000,128MB,off,on,0,2,8,,,,5866.707
10000000,1000000,4MB,off,off,0,1,0,,,,13059.058
10000000,1000000,16MB,off,off,0,1,0,,,,11182.714
10000000,1000000,64MB,off,off,0,1,0,,,,11188.125
10000000,1000000,128MB,off,off,0,1,0,,,,11118.920
10000000,1000000,4MB,off,off,0,1,8,,,,13064.138
10000000,1000000,16MB,off,off,0,1,8,,,,11148.922
10000000,1000000,64MB,off,off,0,1,8,,,,11172.565
10000000,1000000,128MB,off,off,0,1,8,,,,11125.071
10000000,10000000,4MB,on,on,0,1,0,,,,15798.328
10000000,10000000,16MB,on,on,0,1,0,,,,13924.346
10000000,10000000,64MB,on,on,0,1,0,,,,14017.998
10000000,10000000,128MB,on,on,0,1,0,,,,13975.982
10000000,10000000,4MB,on,on,0,1,8,,,,10543.040
10000000,10000000,16MB,on,on,0,1,8,,,,13944.340
10000000,10000000,64MB,on,on,0,1,8,,,,10632.523
10000000,10000000,128MB,on,on,0,1,8,,,,10264.966
10000000,10000000,4MB,on,off,0,1,0,,,,15803.560
10000000,10000000,16MB,on,off,0,1,0,,,,13928.453
10000000,10000000,64MB,on,off,0,1,0,,,,14021.977
10000000,10000000,128MB,on,off,0,1,0,,,,13997.522
10000000,10000000,4MB,on,off,0,1,8,,,,15808.712
10000000,10000000,16MB,on,off,0,1,8,,,,13947.399
10000000,10000000,64MB,on,off,0,1,8,,,,14015.886
10000000,10000000,128MB,on,off,0,1,8,,,,14003.633
10000000,10000000,4MB,off,on,0,1,0,,,,15810.151
10000000,10000000,16MB,off,on,0,1,0,,,,13932.151
10000000,10000000,64MB,off,on,0,1,0,,,,14021.054
10000000,10000000,128MB,off,on,0,1,0,,,,14000.395
10000000,10000000,4MB,off,on,0,1,8,,,,10399.012
10000000,10000000,16MB,off,on,0,1,8,,,,13931.071
10000000,10000000,64MB,off,on,0,1,8,,,,10410.798
10000000,10000000,128MB,off,on,0,1,8,,,,10313.482
10000000,10000000,4MB,off,off,0,1,0,,,,15812.948
10000000,10000000,16MB,off,off,0,1,0,,,,13967.002
10000000,10000000,64MB,off,off,0,1,0,,,,14029.997
10000000,10000000,128MB,off,off,0,1,0,,,,14003.584
10000000,10000000,4MB,off,off,0,1,8,,,,15803.298
10000000,10000000,16MB,off,off,0,1,8,,,,13934.700
10000000,10000000,64MB,off,off,0,1,8,,,,14019.796
10000000,10000000,128MB,off,off,0,1,8,,,,13989.820
100000000,1000,4MB,on,on,1,0,0,,,,47652.016
100000000,1000,16MB,on,on,1,0,0,,,,47523.476
100000000,1000,64MB,on,on,1,0,0,,,,47507.298
100000000,1000,128MB,on,on,1,0,0,,,,47497.041
100000000,1000,4MB,on,on,1,1,8,,,,6702.826
100000000,1000,16MB,on,on,1,1,8,,,,6837.614
100000000,1000,64MB,on,on,1,1,8,,,,6834.773
100000000,1000,128MB,on,on,1,1,8,,,,6851.965
100000000,1000,4MB,on,off,1,0,0,,,,47494.172
100000000,1000,16MB,on,off,1,0,0,,,,47562.873
100000000,1000,64MB,on,off,1,0,0,,,,47395.947
100000000,1000,128MB,on,off,1,0,0,,,,47448.188
100000000,1000,4MB,on,off,2,0,8,,,,6849.027
100000000,1000,16MB,on,off,2,0,8,,,,6853.650
100000000,1000,64MB,on,off,2,0,8,,,,6827.332
100000000,1000,128MB,on,off,2,0,8,,,,6825.186
100000000,1000,4MB,off,on,0,1,0,,,,124392.233
100000000,1000,16MB,off,on,0,1,0,,,,96150.631
100000000,1000,64MB,off,on,0,1,0,,,,81599.208
100000000,1000,128MB,off,on,0,1,0,,,,83184.302
100000000,1000,4MB,off,on,0,2,8,,,,15411.000
100000000,1000,16MB,off,on,0,2,8,,,,11732.649
100000000,1000,64MB,off,on,0,2,8,,,,12093.210
100000000,1000,128MB,off,on,0,2,8,,,,12274.911
100000000,1000,4MB,off,off,0,1,0,,,,124339.148
100000000,1000,16MB,off,off,0,1,0,,,,96221.446
100000000,1000,64MB,off,off,0,1,0,,,,81543.638
100000000,1000,128MB,off,off,0,1,0,,,,82827.871
100000000,1000,4MB,off,off,0,1,8,,,,124347.836
100000000,1000,16MB,off,off,0,1,8,,,,96172.081
100000000,1000,64MB,off,off,0,1,8,,,,81714.958
100000000,1000,128MB,off,off,0,1,8,,,,82800.697
100000000,10000,4MB,on,on,1,0,0,,,,50971.814
100000000,10000,16MB,on,on,1,0,0,,,,50833.289
100000000,10000,64MB,on,on,1,0,0,,,,50826.512
100000000,10000,128MB,on,on,1,0,0,,,,50838.538
100000000,10000,4MB,on,on,1,1,8,,,,7313.648
100000000,10000,16MB,on,on,1,1,8,,,,7314.759
100000000,10000,64MB,on,on,1,1,8,,,,7340.581
100000000,10000,128MB,on,on,1,1,8,,,,7269.524
100000000,10000,4MB,on,off,1,0,0,,,,50853.411
100000000,10000,16MB,on,off,1,0,0,,,,50843.293
100000000,10000,64MB,on,off,1,0,0,,,,50842.049
100000000,10000,128MB,on,off,1,0,0,,,,50842.997
100000000,10000,4MB,on,off,2,0,8,,,,7286.268
100000000,10000,16MB,on,off,2,0,8,,,,7322.199
100000000,10000,64MB,on,off,2,0,8,,,,7306.040
100000000,10000,128MB,on,off,2,0,8,,,,7302.553
100000000,10000,4MB,off,on,0,1,0,,,,133664.318
100000000,10000,16MB,off,on,0,1,0,,,,104020.436
100000000,10000,64MB,off,on,0,1,0,,,,88263.704
100000000,10000,128MB,off,on,0,1,0,,,,89113.920
100000000,10000,4MB,off,on,0,2,8,,,,16794.381
100000000,10000,16MB,off,on,0,2,8,,,,12855.653
100000000,10000,64MB,off,on,0,2,8,,,,13023.600
100000000,10000,128MB,off,on,0,2,8,,,,13274.931
100000000,10000,4MB,off,off,0,1,0,,,,133758.796
100000000,10000,16MB,off,off,0,1,0,,,,103909.754
100000000,10000,64MB,off,off,0,1,0,,,,88184.757
100000000,10000,128MB,off,off,0,1,0,,,,89211.470
100000000,10000,4MB,off,off,0,1,8,,,,133637.427
100000000,10000,16MB,off,off,0,1,8,,,,103959.226
100000000,10000,64MB,off,off,0,1,8,,,,88268.143
100000000,10000,128MB,off,off,0,1,8,,,,89123.748
100000000,100000,4MB,on,on,0,1,0,,,,144950.588
100000000,100000,16MB,on,on,1,0,0,,,,52424.387
100000000,100000,64MB,on,on,1,0,0,,,,52023.298
100000000,100000,128MB,on,on,1,0,0,,,,51903.031
100000000,100000,4MB,on,on,0,2,8,,,,18815.177
100000000,100000,16MB,on,on,2,0,8,,,,9799.316
100000000,100000,64MB,on,on,2,0,8,,,,9788.810
100000000,100000,128MB,on,on,2,0,8,,,,9934.124
100000000,100000,4MB,on,off,0,1,0,,,,144850.740
100000000,100000,16MB,on,off,1,0,0,,,,51882.961
100000000,100000,64MB,on,off,1,0,0,,,,52086.048
100000000,100000,128MB,on,off,1,0,0,,,,52079.283
100000000,100000,4MB,on,off,0,1,8,,,,145061.461
100000000,100000,16MB,on,off,2,0,8,,,,9948.217
100000000,100000,64MB,on,off,2,0,8,,,,9995.854
100000000,100000,128MB,on,off,2,0,8,,,,9792.822
100000000,100000,4MB,off,on,0,1,0,,,,144973.734
100000000,100000,16MB,off,on,0,1,0,,,,117751.556
100000000,100000,64MB,off,on,0,1,0,,,,98280.208
100000000,100000,128MB,off,on,0,1,0,,,,97610.444
100000000,100000,4MB,off,on,0,2,8,,,,18818.353
100000000,100000,16MB,off,on,0,2,8,,,,15009.933
100000000,100000,64MB,off,on,0,2,8,,,,14667.433
100000000,100000,128MB,off,on,0,2,8,,,,14744.168
100000000,100000,4MB,off,off,0,1,0,,,,145169.616
100000000,100000,16MB,off,off,0,1,0,,,,117848.485
100000000,100000,64MB,off,off,0,1,0,,,,98262.212
100000000,100000,128MB,off,off,0,1,0,,,,100979.880
100000000,100000,4MB,off,off,0,1,8,,,,145020.655
100000000,100000,16MB,off,off,0,1,8,,,,117930.235
100000000,100000,64MB,off,off,0,1,8,,,,98280.071
100000000,100000,128MB,off,off,0,1,8,,,,97723.367
100000000,1000000,4MB,on,on,0,1,0,,,,152965.546
100000000,1000000,16MB,on,on,0,1,0,,,,130082.231
100000000,1000000,64MB,on,on,1,0,0,,,,69616.952
100000000,1000000,128MB,on,on,1,0,0,,,,69757.328
100000000,1000000,4MB,on,on,0,2,8,,,,25221.840
100000000,1000000,16MB,on,on,0,2,8,,,,22605.779
100000000,1000000,64MB,on,on,1,1,8,,,,16963.021
100000000,1000000,128MB,on,on,2,0,8,,,,17906.430
100000000,1000000,4MB,on,off,0,1,0,,,,153128.828
100000000,1000000,16MB,on,off,0,1,0,,,,130058.934
100000000,1000000,64MB,on,off,1,0,0,,,,69750.611
100000000,1000000,128MB,on,off,1,0,0,,,,69630.126
100000000,1000000,4MB,on,off,0,1,8,,,,153150.057
100000000,1000000,16MB,on,off,0,1,8,,,,130043.231
100000000,1000000,64MB,on,off,1,0,8,,,,69699.913
100000000,1000000,128MB,on,off,2,0,8,,,,17834.275
100000000,1000000,4MB,off,on,0,1,0,,,,152833.722
100000000,1000000,16MB,off,on,0,1,0,,,,130238.598
100000000,1000000,64MB,off,on,0,1,0,,,,115662.666
100000000,1000000,128MB,off,on,0,1,0,,,,112510.493
100000000,1000000,4MB,off,on,0,2,8,,,,25433.903
100000000,1000000,16MB,off,on,0,2,8,,,,22162.647
100000000,1000000,64MB,off,on,0,2,8,,,,22050.364
100000000,1000000,128MB,off,on,0,2,8,,,,21523.770
100000000,1000000,4MB,off,off,0,1,0,,,,153129.020
100000000,1000000,16MB,off,off,0,1,0,,,,130115.002
100000000,1000000,64MB,off,off,0,1,0,,,,115787.965
100000000,1000000,128MB,off,off,0,1,0,,,,112364.779
100000000,1000000,4MB,off,off,0,1,8,,,,152903.464
100000000,1000000,16MB,off,off,0,1,8,,,,130098.427
100000000,1000000,64MB,off,off,0,1,8,,,,115748.336
100000000,1000000,128MB,off,off,0,1,8,,,,112333.028
100000000,10000000,4MB,on,on,0,1,0,,,,163922.294
100000000,10000000,16MB,on,on,0,1,0,,,,139972.994
100000000,10000000,64MB,on,on,0,1,0,,,,127428.659
100000000,10000000,128MB,on,on,0,1,0,,,,126631.400
100000000,10000000,4MB,on,on,0,2,8,,,,64402.322
100000000,10000000,16MB,on,on,0,2,8,,,,62301.714
100000000,10000000,64MB,on,on,0,2,8,,,,60452.760
100000000,10000000,128MB,on,on,0,2,8,,,,60702.016
100000000,10000000,4MB,on,off,0,1,0,,,,163698.038
100000000,10000000,16MB,on,off,0,1,0,,,,139967.206
100000000,10000000,64MB,on,off,0,1,0,,,,127706.629
100000000,10000000,128MB,on,off,0,1,0,,,,126284.432
100000000,10000000,4MB,on,off,0,1,8,,,,163585.961
100000000,10000000,16MB,on,off,0,1,8,,,,140008.273
100000000,10000000,64MB,on,off,0,1,8,,,,127815.719
100000000,10000000,128MB,on,off,0,1,8,,,,126253.442
100000000,10000000,4MB,off,on,0,1,0,,,,163709.941
100000000,10000000,16MB,off,on,0,1,0,,,,139868.339
100000000,10000000,64MB,off,on,0,1,0,,,,127456.555
100000000,10000000,128MB,off,on,0,1,0,,,,126007.688
100000000,10000000,4MB,off,on,0,2,8,,,,64394.428
100000000,10000000,16MB,off,on,0,2,8,,,,59782.886
100000000,10000000,64MB,off,on,0,2,8,,,,60471.316
100000000,10000000,128MB,off,on,0,2,8,,,,60977.461
100000000,10000000,4MB,off,off,0,1,0,,,,163569.354
100000000,10000000,16MB,off,off,0,1,0,,,,140035.076
100000000,10000000,64MB,off,off,0,1,0,,,,127670.410
100000000,10000000,128MB,off,off,0,1,0,,,,126225.585
100000000,10000000,4MB,off,off,0,1,8,,,,163755.664
100000000,10000000,16MB,off,off,0,1,8,,,,139980.387
100000000,10000000,64MB,off,off,0,1,8,,,,127838.389
100000000,10000000,128MB,off,off,0,1,8,,,,126314.604
100000000,100000000,4MB,on,on,0,1,0,,,,191349.500
100000000,100000000,16MB,on,on,0,1,0,,,,167422.417
100000000,100000000,64MB,on,on,0,1,0,,,,154244.615
100000000,100000000,128MB,on,on,0,1,0,,,,153594.927
100000000,100000000,4MB,on,on,0,2,8,,,,108212.383
100000000,100000000,16MB,on,on,0,2,8,,,,105692.917
100000000,100000000,64MB,on,on,0,2,8,,,,103838.390
100000000,100000000,128MB,on,on,0,2,8,,,,101516.360
100000000,100000000,4MB,on,off,0,1,0,,,,191044.865
100000000,100000000,16MB,on,off,0,1,0,,,,167342.212
100000000,100000000,64MB,on,off,0,1,0,,,,154534.187
100000000,100000000,128MB,on,off,0,1,0,,,,153530.743
100000000,100000000,4MB,on,off,0,1,8,,,,191041.898
100000000,100000000,16MB,on,off,0,1,8,,,,167377.245
100000000,100000000,64MB,on,off,0,1,8,,,,154473.871
100000000,100000000,128MB,on,off,0,1,8,,,,153689.929
100000000,100000000,4MB,off,on,0,1,0,,,,191098.919
100000000,100000000,16MB,off,on,0,1,0,,,,169232.831
100000000,100000000,64MB,off,on,0,1,0,,,,160365.713
100000000,100000000,128MB,off,on,0,1,0,,,,153436.374
100000000,100000000,4MB,off,on,0,2,8,,,,103234.093
100000000,100000000,16MB,off,on,0,2,8,,,,105733.301
100000000,100000000,64MB,off,on,0,2,8,,,,106071.612
100000000,100000000,128MB,off,on,0,2,8,,,,105498.788
100000000,100000000,4MB,off,off,0,1,0,,,,191072.613
100000000,100000000,16MB,off,off,0,1,0,,,,168238.094
100000000,100000000,64MB,off,off,0,1,0,,,,154490.174
100000000,100000000,128MB,off,off,0,1,0,,,,153531.067
100000000,100000000,4MB,off,off,0,1,8,,,,191116.894
100000000,100000000,16MB,off,off,0,1,8,,,,167268.186
100000000,100000000,64MB,off,off,0,1,8,,,,154397.025
100000000,100000000,128MB,off,off,0,1,8,,,,153322.494
